<?xml version="1.0" encoding="UTF-8"?>
<svg width="17px" height="18px" viewBox="0 0 17 18" version="1.1" xmlns="http://www.w3.org/2000/svg" xmlns:xlink="http://www.w3.org/1999/xlink">
    <!-- Generator: Sketch 51.2 (57519) - http://www.bohemiancoding.com/sketch -->
    <title>flight</title>
    <desc>Created with Sketch.</desc>
    <defs></defs>
    <g id="Page-1" stroke="none" stroke-width="1" fill="none" fill-rule="evenodd">
        <g id="flight" transform="translate(-4.000000, -6.000000)" fill="#FFFFFF" fill-rule="nonzero">
            <path d="M22.3037468,17.635283 L22.3037468,15.7270341 L14.7416458,10.956412 L14.7416458,5.70872761 C14.7416458,4.91680431 14.1083198,4.27754101 13.3237518,4.27754101 C12.5391838,4.27754101 11.9058578,4.91680431 11.9058578,5.70872761 L11.9058578,10.956412 L4.34375677,15.7270341 L4.34375677,17.635283 L11.9058578,15.2499719 L11.9058578,20.4976563 L10.0153328,21.9288429 L10.0153328,23.3600295 L13.3237518,22.4059051 L16.6321708,23.3600295 L16.6321708,21.9288429 L14.7416458,20.4976563 L14.7416458,15.2499719 L22.3037468,17.635283 Z" id="Shape" transform="translate(13.323752, 13.818785) scale(-1, 1) rotate(-41.000000) translate(-13.323752, -13.818785) "></path>
        </g>
    </g>
</svg>