<?xml version="1.0" encoding="UTF-8"?>
<svg width="12px" height="8px" viewBox="0 0 12 8" version="1.1" xmlns="http://www.w3.org/2000/svg" xmlns:xlink="http://www.w3.org/1999/xlink">
    <!-- Generator: Sketch 50.2 (55047) - http://www.bohemiancoding.com/sketch -->
    <title>Drop-Down Icon</title>
    <desc>Created with Sketch.</desc>
    <defs></defs>
    <g id="Symbols" stroke="none" stroke-width="1" fill="none" fill-rule="evenodd">
        <g id="Text-Field-(875)-Drop-Down" transform="translate(-847.000000, -17.000000)">
            <g id="Drop-Down-Icon" transform="translate(841.000000, 9.000000)">
                <polygon id="Shape" fill="#071B22" fill-rule="nonzero" points="16.59 8.59 12 13.17 7.41 8.59 6 10 12 16 18 10"></polygon>
                <polygon id="Shape" points="0 0 24 0 24 24 0 24"></polygon>
            </g>
        </g>
    </g>
</svg>